
float_2:     formato del fichero elf64-x86-64

Contenido de la sección .interp:
 0238 2f6c6962 36342f6c 642d6c69 6e75782d  /lib64/ld-linux-
 0248 7838362d 36342e73 6f2e3200           x86-64.so.2.    
Contenido de la sección .note.ABI-tag:
 0254 04000000 10000000 01000000 474e5500  ............GNU.
 0264 00000000 03000000 02000000 00000000  ................
Contenido de la sección .note.gnu.build-id:
 0274 04000000 14000000 03000000 474e5500  ............GNU.
 0284 7469011b e6673f62 ea3de12d d38a133f  ti...g?b.=.-...?
 0294 f5869e48                             ...H            
Contenido de la sección .gnu.hash:
 0298 01000000 01000000 01000000 00000000  ................
 02a8 00000000 00000000 00000000           ............    
Contenido de la sección .dynsym:
 02b8 00000000 00000000 00000000 00000000  ................
 02c8 00000000 00000000 3d000000 20000000  ........=... ...
 02d8 00000000 00000000 00000000 00000000  ................
 02e8 0b000000 12000000 00000000 00000000  ................
 02f8 00000000 00000000 1f000000 12000000  ................
 0308 00000000 00000000 00000000 00000000  ................
 0318 59000000 20000000 00000000 00000000  Y... ...........
 0328 00000000 00000000 68000000 20000000  ........h... ...
 0338 00000000 00000000 00000000 00000000  ................
 0348 10000000 22000000 00000000 00000000  ...."...........
 0358 00000000 00000000                    ........        
Contenido de la sección .dynstr:
 0360 006c6962 632e736f 2e360070 75747300  .libc.so.6.puts.
 0370 5f5f6378 615f6669 6e616c69 7a65005f  __cxa_finalize._
 0380 5f6c6962 635f7374 6172745f 6d61696e  _libc_start_main
 0390 00474c49 42435f32 2e322e35 005f4954  .GLIBC_2.2.5._IT
 03a0 4d5f6465 72656769 73746572 544d436c  M_deregisterTMCl
 03b0 6f6e6554 61626c65 005f5f67 6d6f6e5f  oneTable.__gmon_
 03c0 73746172 745f5f00 5f49544d 5f726567  start__._ITM_reg
 03d0 69737465 72544d43 6c6f6e65 5461626c  isterTMCloneTabl
 03e0 6500                                 e.              
Contenido de la sección .gnu.version:
 03e2 00000000 02000200 00000000 0200      ..............  
Contenido de la sección .gnu.version_r:
 03f0 01000100 01000000 10000000 00000000  ................
 0400 751a6909 00000200 31000000 00000000  u.i.....1.......
Contenido de la sección .rela.dyn:
 0410 b80d2000 00000000 08000000 00000000  .. .............
 0420 30060000 00000000 c00d2000 00000000  0......... .....
 0430 08000000 00000000 f0050000 00000000  ................
 0440 08102000 00000000 08000000 00000000  .. .............
 0450 08102000 00000000 d80f2000 00000000  .. ....... .....
 0460 06000000 01000000 00000000 00000000  ................
 0470 e00f2000 00000000 06000000 03000000  .. .............
 0480 00000000 00000000 e80f2000 00000000  .......... .....
 0490 06000000 04000000 00000000 00000000  ................
 04a0 f00f2000 00000000 06000000 05000000  .. .............
 04b0 00000000 00000000 f80f2000 00000000  .......... .....
 04c0 06000000 06000000 00000000 00000000  ................
Contenido de la sección .rela.plt:
 04d0 d00f2000 00000000 07000000 02000000  .. .............
 04e0 00000000 00000000                    ........        
Contenido de la sección .init:
 04e8 4883ec08 488b05f5 0a200048 85c07402  H...H.... .H..t.
 04f8 ffd04883 c408c3                      ..H....         
Contenido de la sección .plt:
 0500 ff35ba0a 2000ff25 bc0a2000 0f1f4000  .5.. ..%.. ...@.
 0510 ff25ba0a 20006800 000000e9 e0ffffff  .%.. .h.........
Contenido de la sección .plt.got:
 0520 ff25d20a 20006690                    .%.. .f.        
Contenido de la sección .text:
 0530 31ed4989 d15e4889 e24883e4 f050544c  1.I..^H..H...PTL
 0540 8d058a01 0000488d 0d130100 00488d3d  ......H......H.=
 0550 e6000000 ff15860a 2000f40f 1f440000  ........ ....D..
 0560 488d3da9 0a200055 488d05a1 0a200048  H.=.. .UH.... .H
 0570 39f84889 e5741948 8b055a0a 20004885  9.H..t.H..Z. .H.
 0580 c0740d5d ffe0662e 0f1f8400 00000000  .t.]..f.........
 0590 5dc30f1f 4000662e 0f1f8400 00000000  ]...@.f.........
 05a0 488d3d69 0a200048 8d35620a 20005548  H.=i. .H.5b. .UH
 05b0 29fe4889 e548c1fe 034889f0 48c1e83f  ).H..H...H..H..?
 05c0 4801c648 d1fe7418 488b0521 0a200048  H..H..t.H..!. .H
 05d0 85c0740c 5dffe066 0f1f8400 00000000  ..t.]..f........
 05e0 5dc30f1f 4000662e 0f1f8400 00000000  ]...@.f.........
 05f0 803d190a 20000075 2f48833d f7092000  .=.. ..u/H.=.. .
 0600 00554889 e5740c48 8b3dfa09 2000e80d  .UH..t.H.=.. ...
 0610 ffffffe8 48ffffff c605f109 2000015d  ....H....... ..]
 0620 c30f1f80 00000000 f3c3660f 1f440000  ..........f..D..
 0630 554889e5 5de966ff ffff5548 89e5488d  UH..].f...UH..H.
 0640 3d9f0000 00e8c6fe ffffb800 0000005d  =..............]
 0650 c3662e0f 1f840000 0000000f 1f440000  .f...........D..
 0660 41574156 4989d741 5541544c 8d254607  AWAVI..AUATL.%F.
 0670 20005548 8d2d4607 20005341 89fd4989   .UH.-F. .SA..I.
 0680 f64c29e5 4883ec08 48c1fd03 e857feff  .L).H...H....W..
 0690 ff4885ed 742031db 0f1f8400 00000000  .H..t 1.........
 06a0 4c89fa4c 89f64489 ef41ff14 dc4883c3  L..L..D..A...H..
 06b0 014839dd 75ea4883 c4085b5d 415c415d  .H9.u.H...[]A\A]
 06c0 415e415f c390662e 0f1f8400 00000000  A^A_..f.........
 06d0 f3c3                                 ..              
Contenido de la sección .fini:
 06d4 4883ec08 4883c408 c3                 H...H....       
Contenido de la sección .rodata:
 06e0 01000200 6e656761 7469766f 203d202d  ....negativo = -
 06f0 302c3233 3700                        0,237.          
Contenido de la sección .eh_frame_hdr:
 06f8 011b033b 3c000000 06000000 08feffff  ...;<...........
 0708 88000000 28feffff b0000000 38feffff  ....(.......8...
 0718 58000000 42ffffff c8000000 68ffffff  X...B.......h...
 0728 e8000000 d8ffffff 30010000           ........0...    
Contenido de la sección .eh_frame:
 0738 14000000 00000000 017a5200 01781001  .........zR..x..
 0748 1b0c0708 90010710 14000000 1c000000  ................
 0758 d8fdffff 2b000000 00000000 00000000  ....+...........
 0768 14000000 00000000 017a5200 01781001  .........zR..x..
 0778 1b0c0708 90010000 24000000 1c000000  ........$.......
 0788 78fdffff 20000000 000e1046 0e184a0f  x... ......F..J.
 0798 0b770880 003f1a3b 2a332422 00000000  .w...?.;*3$"....
 07a8 14000000 44000000 70fdffff 08000000  ....D...p.......
 07b8 00000000 00000000 1c000000 5c000000  ............\...
 07c8 72feffff 17000000 00410e10 8602430d  r........A....C.
 07d8 06520c07 08000000 44000000 7c000000  .R......D...|...
 07e8 78feffff 65000000 00420e10 8f02420e  x...e....B....B.
 07f8 188e0345 0e208d04 420e288c 05480e30  ...E. ..B.(..H.0
 0808 8606480e 3883074d 0e40720e 38410e30  ..H.8..M.@r.8A.0
 0818 410e2842 0e20420e 18420e10 420e0800  A.(B. B..B..B...
 0828 10000000 c4000000 a0feffff 02000000  ................
 0838 00000000 00000000                    ........        
Contenido de la sección .init_array:
 200db8 30060000 00000000                    0.......        
Contenido de la sección .fini_array:
 200dc0 f0050000 00000000                    ........        
Contenido de la sección .dynamic:
 200dc8 01000000 00000000 01000000 00000000  ................
 200dd8 0c000000 00000000 e8040000 00000000  ................
 200de8 0d000000 00000000 d4060000 00000000  ................
 200df8 19000000 00000000 b80d2000 00000000  .......... .....
 200e08 1b000000 00000000 08000000 00000000  ................
 200e18 1a000000 00000000 c00d2000 00000000  .......... .....
 200e28 1c000000 00000000 08000000 00000000  ................
 200e38 f5feff6f 00000000 98020000 00000000  ...o............
 200e48 05000000 00000000 60030000 00000000  ........`.......
 200e58 06000000 00000000 b8020000 00000000  ................
 200e68 0a000000 00000000 82000000 00000000  ................
 200e78 0b000000 00000000 18000000 00000000  ................
 200e88 15000000 00000000 00000000 00000000  ................
 200e98 03000000 00000000 b80f2000 00000000  .......... .....
 200ea8 02000000 00000000 18000000 00000000  ................
 200eb8 14000000 00000000 07000000 00000000  ................
 200ec8 17000000 00000000 d0040000 00000000  ................
 200ed8 07000000 00000000 10040000 00000000  ................
 200ee8 08000000 00000000 c0000000 00000000  ................
 200ef8 09000000 00000000 18000000 00000000  ................
 200f08 1e000000 00000000 08000000 00000000  ................
 200f18 fbffff6f 00000000 01000008 00000000  ...o............
 200f28 feffff6f 00000000 f0030000 00000000  ...o............
 200f38 ffffff6f 00000000 01000000 00000000  ...o............
 200f48 f0ffff6f 00000000 e2030000 00000000  ...o............
 200f58 f9ffff6f 00000000 03000000 00000000  ...o............
 200f68 00000000 00000000 00000000 00000000  ................
 200f78 00000000 00000000 00000000 00000000  ................
 200f88 00000000 00000000 00000000 00000000  ................
 200f98 00000000 00000000 00000000 00000000  ................
 200fa8 00000000 00000000 00000000 00000000  ................
Contenido de la sección .got:
 200fb8 c80d2000 00000000 00000000 00000000  .. .............
 200fc8 00000000 00000000 16050000 00000000  ................
 200fd8 00000000 00000000 00000000 00000000  ................
 200fe8 00000000 00000000 00000000 00000000  ................
 200ff8 00000000 00000000                    ........        
Contenido de la sección .data:
 201000 00000000 00000000 08102000 00000000  .......... .....
Contenido de la sección .comment:
 0000 4743433a 20285562 756e7475 20372e34  GCC: (Ubuntu 7.4
 0010 2e302d31 7562756e 7475317e 31382e30  .0-1ubuntu1~18.0
 0020 342e3129 20372e34 2e3000             4.1) 7.4.0.     
Contenido de la sección .debug_aranges:
 0000 2c000000 02000000 00000800 00000000  ,...............
 0010 3a060000 00000000 17000000 00000000  :...............
 0020 00000000 00000000 00000000 00000000  ................
Contenido de la sección .debug_info:
 0000 41030000 04000000 00000801 f6000000  A...............
 0010 049b0100 00a70100 003a0600 00000000  .........:......
 0020 00170000 00000000 00000000 00022f00  ............../.
 0030 000002d8 38000000 0308070d 02000003  ....8...........
 0040 0108e800 00000302 07880100 00030407  ................
 0050 12020000 030106ea 00000003 02052500  ..............%.
 0060 00000404 05696e74 00030805 8e000000  .....int........
 0070 02370200 00038c69 00000002 2d020000  .7.....i....-...
 0080 038d6900 00000508 06088e00 00000301  ..i.............
 0090 06f10000 00078e00 000008df 000000d8  ................
 00a0 04f51a02 00000944 00000004 f6620000  .......D.....b..
 00b0 0000097b 01000004 fb880000 00080961  ...{...........a
 00c0 00000004 fc880000 0010096a 02000004  ...........j....
 00d0 fd880000 00180963 01000004 fe880000  .......c........
 00e0 00200936 00000004 ff880000 00280a1f  . .6.........(..
 00f0 02000004 00018800 0000300a 4b000000  ..........0.K...
 0100 04010188 00000038 0a000000 00040201  .......8........
 0110 88000000 400a8702 00000404 01880000  ....@...........
 0120 00480a46 02000004 05018800 0000500a  .H.F..........P.
 0130 18000000 04060188 00000058 0a580000  ...........X.X..
 0140 00040801 52020000 600a3f02 0000040a  ....R...`.?.....
 0150 01580200 00680a95 02000004 0c016200  .X...h........b.
 0160 0000700a 5c020000 04100162 00000074  ..p.\......b...t
 0170 0a0c0000 00041201 70000000 780a9700  ........p...x...
 0180 00000416 01460000 00800a78 02000004  .....F.....x....
 0190 17015400 0000820a 59010000 0418015e  ..T.....Y......^
 01a0 02000083 0a880000 00041c01 6e020000  ............n...
 01b0 880a1000 00000425 017b0000 00900aea  .......%.{......
 01c0 01000004 2d018600 0000980a f1010000  ....-...........
 01d0 042e0186 000000a0 0af80100 00042f01  ............../.
 01e0 86000000 a80aff01 00000430 01860000  ...........0....
 01f0 00b00a06 02000004 32012d00 0000b80a  ........2.-.....
 0200 64020000 04330162 000000c0 0a720100  d....3.b.....r..
 0210 00043501 74020000 c4000bb4 02000004  ..5.t...........
 0220 9a084e01 00001804 a0520200 0009e401  ..N......R......
 0230 000004a1 52020000 0009d900 000004a2  ....R...........
 0240 58020000 0809c100 000004a6 62000000  X...........b...
 0250 10000608 21020000 06089a00 00000c8e  ....!...........
 0260 0000006e 0200000d 38000000 00000608  ...n....8.......
 0270 1a020000 0c8e0000 00840200 000d3800  ..............8.
 0280 00001300 0eb30000 000f3f01 0000043f  ..........?....?
 0290 01840200 000fa402 00000440 01840200  ...........@....
 02a0 000fa300 00000441 01840200 00060895  .......A........
 02b0 00000007 ad020000 10560200 00058758  .........V.....X
 02c0 02000010 9d020000 05885802 00001081  ..........X.....
 02d0 00000005 89580200 0010c700 0000061a  .....X..........
 02e0 62000000 0cb30200 00ef0200 00110010  b...............
 02f0 6f000000 061be402 000010c6 00000006  o...............
 0300 1e620000 00106e00 0000061f e4020000  .b....n.........
 0310 12df0100 00010362 0000003a 06000000  .......b...:....
 0320 00000017 00000000 00000001 9c3d0300  .............=..
 0330 0013d000 00000105 3d030000 00030404  ........=.......
 0340 7b000000 00                          {....           
Contenido de la sección .debug_abbrev:
 0000 01110125 0e130b03 0e1b0e11 01120710  ...%............
 0010 17000002 1600030e 3a0b3b0b 49130000  ........:.;.I...
 0020 0324000b 0b3e0b03 0e000004 24000b0b  .$...>......$...
 0030 3e0b0308 0000050f 000b0b00 00060f00  >...............
 0040 0b0b4913 00000726 00491300 00081301  ..I....&.I......
 0050 030e0b0b 3a0b3b0b 01130000 090d0003  ....:.;.........
 0060 0e3a0b3b 0b491338 0b00000a 0d00030e  .:.;.I.8........
 0070 3a0b3b05 4913380b 00000b16 00030e3a  :.;.I.8........:
 0080 0b3b0b00 000c0101 49130113 00000d21  .;......I......!
 0090 0049132f 0b00000e 1300030e 3c190000  .I./........<...
 00a0 0f340003 0e3a0b3b 0549133f 193c1900  .4...:.;.I.?.<..
 00b0 00103400 030e3a0b 3b0b4913 3f193c19  ..4...:.;.I.?.<.
 00c0 00001121 00000012 2e013f19 030e3a0b  ...!......?...:.
 00d0 3b0b4913 11011207 40189642 19011300  ;.I.....@..B....
 00e0 00133400 030e3a0b 3b0b4913 000000    ..4...:.;.I.... 
Contenido de la sección .debug_line:
 0000 d2000000 0200b800 00000101 fb0e0d00  ................
 0010 01010101 00000001 0000012f 7573722f  .........../usr/
 0020 6c69622f 6763632f 7838365f 36342d6c  lib/gcc/x86_64-l
 0030 696e7578 2d676e75 2f372f69 6e636c75  inux-gnu/7/inclu
 0040 6465002f 7573722f 696e636c 7564652f  de./usr/include/
 0050 7838365f 36342d6c 696e7578 2d676e75  x86_64-linux-gnu
 0060 2f626974 73002f75 73722f69 6e636c75  /bits./usr/inclu
 0070 64650000 666c6f61 745f322e 63707000  de..float_2.cpp.
 0080 00000073 74646465 662e6800 01000074  ...stddef.h....t
 0090 79706573 2e680002 00006c69 62696f2e  ypes.h....libio.
 00a0 68000200 00737464 696f2e68 00030000  h....stdio.h....
 00b0 7379735f 6572726c 6973742e 68000200  sys_errlist.h...
 00c0 00000009 023a0600 00000000 00144ebc  .....:........N.
 00d0 5a020200 0101                        Z.....          
Contenido de la sección .debug_str:
 0000 5f494f5f 6275665f 656e6400 5f6f6c64  _IO_buf_end._old
 0010 5f6f6666 73657400 5f494f5f 73617665  _offset._IO_save
 0020 5f656e64 0073686f 72742069 6e740073  _end.short int.s
 0030 697a655f 74005f49 4f5f7772 6974655f  ize_t._IO_write_
 0040 70747200 5f666c61 6773005f 494f5f62  ptr._flags._IO_b
 0050 75665f62 61736500 5f6d6172 6b657273  uf_base._markers
 0060 005f494f 5f726561 645f656e 64005f73  ._IO_read_end._s
 0070 79735f65 72726c69 73740066 6c6f6174  ys_errlist.float
 0080 00737464 65727200 5f6c6f63 6b006c6f  .stderr._lock.lo
 0090 6e672069 6e74005f 6375725f 636f6c75  ng int._cur_colu
 00a0 6d6e005f 494f5f32 5f315f73 74646572  mn._IO_2_1_stder
 00b0 725f005f 494f5f46 494c455f 706c7573  r_._IO_FILE_plus
 00c0 005f706f 73005f73 79735f6e 65727200  ._pos._sys_nerr.
 00d0 6e656761 7469766f 005f7362 7566005f  negativo._sbuf._
 00e0 494f5f46 494c4500 756e7369 676e6564  IO_FILE.unsigned
 00f0 20636861 7200474e 5520432b 2b313420   char.GNU C++14 
 0100 372e342e 30202d6d 74756e65 3d67656e  7.4.0 -mtune=gen
 0110 65726963 202d6d61 7263683d 7838362d  eric -march=x86-
 0120 3634202d 67202d66 73746163 6b2d7072  64 -g -fstack-pr
 0130 6f746563 746f722d 7374726f 6e67005f  otector-strong._
 0140 494f5f32 5f315f73 7464696e 5f005f49  IO_2_1_stdin_._I
 0150 4f5f6d61 726b6572 005f7368 6f727462  O_marker._shortb
 0160 7566005f 494f5f77 72697465 5f626173  uf._IO_write_bas
 0170 65005f75 6e757365 6432005f 494f5f72  e._unused2._IO_r
 0180 6561645f 70747200 73686f72 7420756e  ead_ptr.short un
 0190 7369676e 65642069 6e740066 6c6f6174  signed int.float
 01a0 5f322e63 7070002f 686f6d65 2f656c65  _2.cpp./home/ele
 01b0 6e612f45 4c454e41 5f474954 2f6e6f74  na/ELENA_GIT/not
 01c0 65732f63 70726f67 72616d73 2f30345f  es/cprograms/04_
 01d0 7469706f 735f6465 5f646174 6f73006d  tipos_de_datos.m
 01e0 61696e00 5f6e6578 74005f5f 70616431  ain._next.__pad1
 01f0 005f5f70 61643200 5f5f7061 6433005f  .__pad2.__pad3._
 0200 5f706164 34005f5f 70616435 006c6f6e  _pad4.__pad5.lon
 0210 6720756e 7369676e 65642069 6e74005f  g unsigned int._
 0220 494f5f77 72697465 5f656e64 005f5f6f  IO_write_end.__o
 0230 66663634 5f74005f 5f6f6666 5f74005f  ff64_t.__off_t._
 0240 63686169 6e005f49 4f5f6261 636b7570  chain._IO_backup
 0250 5f626173 65007374 64696e00 5f666c61  _base.stdin._fla
 0260 67733200 5f6d6f64 65005f49 4f5f7265  gs2._mode._IO_re
 0270 61645f62 61736500 5f767461 626c655f  ad_base._vtable_
 0280 6f666673 6574005f 494f5f73 6176655f  offset._IO_save_
 0290 62617365 005f6669 6c656e6f 00737464  base._fileno.std
 02a0 6f757400 5f494f5f 325f315f 7374646f  out._IO_2_1_stdo
 02b0 75745f00 5f494f5f 6c6f636b 5f7400    ut_._IO_lock_t. 

Desensamblado de la sección .init:

00000000000004e8 <_init>:
 4e8:	48 83 ec 08          	sub    $0x8,%rsp
 4ec:	48 8b 05 f5 0a 20 00 	mov    0x200af5(%rip),%rax        # 200fe8 <__gmon_start__>
 4f3:	48 85 c0             	test   %rax,%rax
 4f6:	74 02                	je     4fa <_init+0x12>
 4f8:	ff d0                	callq  *%rax
 4fa:	48 83 c4 08          	add    $0x8,%rsp
 4fe:	c3                   	retq   

Desensamblado de la sección .plt:

0000000000000500 <.plt>:
 500:	ff 35 ba 0a 20 00    	pushq  0x200aba(%rip)        # 200fc0 <_GLOBAL_OFFSET_TABLE_+0x8>
 506:	ff 25 bc 0a 20 00    	jmpq   *0x200abc(%rip)        # 200fc8 <_GLOBAL_OFFSET_TABLE_+0x10>
 50c:	0f 1f 40 00          	nopl   0x0(%rax)

0000000000000510 <puts@plt>:
 510:	ff 25 ba 0a 20 00    	jmpq   *0x200aba(%rip)        # 200fd0 <puts@GLIBC_2.2.5>
 516:	68 00 00 00 00       	pushq  $0x0
 51b:	e9 e0 ff ff ff       	jmpq   500 <.plt>

Desensamblado de la sección .plt.got:

0000000000000520 <__cxa_finalize@plt>:
 520:	ff 25 d2 0a 20 00    	jmpq   *0x200ad2(%rip)        # 200ff8 <__cxa_finalize@GLIBC_2.2.5>
 526:	66 90                	xchg   %ax,%ax

Desensamblado de la sección .text:

0000000000000530 <_start>:
 530:	31 ed                	xor    %ebp,%ebp
 532:	49 89 d1             	mov    %rdx,%r9
 535:	5e                   	pop    %rsi
 536:	48 89 e2             	mov    %rsp,%rdx
 539:	48 83 e4 f0          	and    $0xfffffffffffffff0,%rsp
 53d:	50                   	push   %rax
 53e:	54                   	push   %rsp
 53f:	4c 8d 05 8a 01 00 00 	lea    0x18a(%rip),%r8        # 6d0 <__libc_csu_fini>
 546:	48 8d 0d 13 01 00 00 	lea    0x113(%rip),%rcx        # 660 <__libc_csu_init>
 54d:	48 8d 3d e6 00 00 00 	lea    0xe6(%rip),%rdi        # 63a <main>
 554:	ff 15 86 0a 20 00    	callq  *0x200a86(%rip)        # 200fe0 <__libc_start_main@GLIBC_2.2.5>
 55a:	f4                   	hlt    
 55b:	0f 1f 44 00 00       	nopl   0x0(%rax,%rax,1)

0000000000000560 <deregister_tm_clones>:
 560:	48 8d 3d a9 0a 20 00 	lea    0x200aa9(%rip),%rdi        # 201010 <__TMC_END__>
 567:	55                   	push   %rbp
 568:	48 8d 05 a1 0a 20 00 	lea    0x200aa1(%rip),%rax        # 201010 <__TMC_END__>
 56f:	48 39 f8             	cmp    %rdi,%rax
 572:	48 89 e5             	mov    %rsp,%rbp
 575:	74 19                	je     590 <deregister_tm_clones+0x30>
 577:	48 8b 05 5a 0a 20 00 	mov    0x200a5a(%rip),%rax        # 200fd8 <_ITM_deregisterTMCloneTable>
 57e:	48 85 c0             	test   %rax,%rax
 581:	74 0d                	je     590 <deregister_tm_clones+0x30>
 583:	5d                   	pop    %rbp
 584:	ff e0                	jmpq   *%rax
 586:	66 2e 0f 1f 84 00 00 	nopw   %cs:0x0(%rax,%rax,1)
 58d:	00 00 00 
 590:	5d                   	pop    %rbp
 591:	c3                   	retq   
 592:	0f 1f 40 00          	nopl   0x0(%rax)
 596:	66 2e 0f 1f 84 00 00 	nopw   %cs:0x0(%rax,%rax,1)
 59d:	00 00 00 

00000000000005a0 <register_tm_clones>:
 5a0:	48 8d 3d 69 0a 20 00 	lea    0x200a69(%rip),%rdi        # 201010 <__TMC_END__>
 5a7:	48 8d 35 62 0a 20 00 	lea    0x200a62(%rip),%rsi        # 201010 <__TMC_END__>
 5ae:	55                   	push   %rbp
 5af:	48 29 fe             	sub    %rdi,%rsi
 5b2:	48 89 e5             	mov    %rsp,%rbp
 5b5:	48 c1 fe 03          	sar    $0x3,%rsi
 5b9:	48 89 f0             	mov    %rsi,%rax
 5bc:	48 c1 e8 3f          	shr    $0x3f,%rax
 5c0:	48 01 c6             	add    %rax,%rsi
 5c3:	48 d1 fe             	sar    %rsi
 5c6:	74 18                	je     5e0 <register_tm_clones+0x40>
 5c8:	48 8b 05 21 0a 20 00 	mov    0x200a21(%rip),%rax        # 200ff0 <_ITM_registerTMCloneTable>
 5cf:	48 85 c0             	test   %rax,%rax
 5d2:	74 0c                	je     5e0 <register_tm_clones+0x40>
 5d4:	5d                   	pop    %rbp
 5d5:	ff e0                	jmpq   *%rax
 5d7:	66 0f 1f 84 00 00 00 	nopw   0x0(%rax,%rax,1)
 5de:	00 00 
 5e0:	5d                   	pop    %rbp
 5e1:	c3                   	retq   
 5e2:	0f 1f 40 00          	nopl   0x0(%rax)
 5e6:	66 2e 0f 1f 84 00 00 	nopw   %cs:0x0(%rax,%rax,1)
 5ed:	00 00 00 

00000000000005f0 <__do_global_dtors_aux>:
 5f0:	80 3d 19 0a 20 00 00 	cmpb   $0x0,0x200a19(%rip)        # 201010 <__TMC_END__>
 5f7:	75 2f                	jne    628 <__do_global_dtors_aux+0x38>
 5f9:	48 83 3d f7 09 20 00 	cmpq   $0x0,0x2009f7(%rip)        # 200ff8 <__cxa_finalize@GLIBC_2.2.5>
 600:	00 
 601:	55                   	push   %rbp
 602:	48 89 e5             	mov    %rsp,%rbp
 605:	74 0c                	je     613 <__do_global_dtors_aux+0x23>
 607:	48 8b 3d fa 09 20 00 	mov    0x2009fa(%rip),%rdi        # 201008 <__dso_handle>
 60e:	e8 0d ff ff ff       	callq  520 <__cxa_finalize@plt>
 613:	e8 48 ff ff ff       	callq  560 <deregister_tm_clones>
 618:	c6 05 f1 09 20 00 01 	movb   $0x1,0x2009f1(%rip)        # 201010 <__TMC_END__>
 61f:	5d                   	pop    %rbp
 620:	c3                   	retq   
 621:	0f 1f 80 00 00 00 00 	nopl   0x0(%rax)
 628:	f3 c3                	repz retq 
 62a:	66 0f 1f 44 00 00    	nopw   0x0(%rax,%rax,1)

0000000000000630 <frame_dummy>:
 630:	55                   	push   %rbp
 631:	48 89 e5             	mov    %rsp,%rbp
 634:	5d                   	pop    %rbp
 635:	e9 66 ff ff ff       	jmpq   5a0 <register_tm_clones>

000000000000063a <main>:
 63a:	55                   	push   %rbp
 63b:	48 89 e5             	mov    %rsp,%rbp
 63e:	48 8d 3d 9f 00 00 00 	lea    0x9f(%rip),%rdi        # 6e4 <_IO_stdin_used+0x4>
 645:	e8 c6 fe ff ff       	callq  510 <puts@plt>
 64a:	b8 00 00 00 00       	mov    $0x0,%eax
 64f:	5d                   	pop    %rbp
 650:	c3                   	retq   
 651:	66 2e 0f 1f 84 00 00 	nopw   %cs:0x0(%rax,%rax,1)
 658:	00 00 00 
 65b:	0f 1f 44 00 00       	nopl   0x0(%rax,%rax,1)

0000000000000660 <__libc_csu_init>:
 660:	41 57                	push   %r15
 662:	41 56                	push   %r14
 664:	49 89 d7             	mov    %rdx,%r15
 667:	41 55                	push   %r13
 669:	41 54                	push   %r12
 66b:	4c 8d 25 46 07 20 00 	lea    0x200746(%rip),%r12        # 200db8 <__frame_dummy_init_array_entry>
 672:	55                   	push   %rbp
 673:	48 8d 2d 46 07 20 00 	lea    0x200746(%rip),%rbp        # 200dc0 <__init_array_end>
 67a:	53                   	push   %rbx
 67b:	41 89 fd             	mov    %edi,%r13d
 67e:	49 89 f6             	mov    %rsi,%r14
 681:	4c 29 e5             	sub    %r12,%rbp
 684:	48 83 ec 08          	sub    $0x8,%rsp
 688:	48 c1 fd 03          	sar    $0x3,%rbp
 68c:	e8 57 fe ff ff       	callq  4e8 <_init>
 691:	48 85 ed             	test   %rbp,%rbp
 694:	74 20                	je     6b6 <__libc_csu_init+0x56>
 696:	31 db                	xor    %ebx,%ebx
 698:	0f 1f 84 00 00 00 00 	nopl   0x0(%rax,%rax,1)
 69f:	00 
 6a0:	4c 89 fa             	mov    %r15,%rdx
 6a3:	4c 89 f6             	mov    %r14,%rsi
 6a6:	44 89 ef             	mov    %r13d,%edi
 6a9:	41 ff 14 dc          	callq  *(%r12,%rbx,8)
 6ad:	48 83 c3 01          	add    $0x1,%rbx
 6b1:	48 39 dd             	cmp    %rbx,%rbp
 6b4:	75 ea                	jne    6a0 <__libc_csu_init+0x40>
 6b6:	48 83 c4 08          	add    $0x8,%rsp
 6ba:	5b                   	pop    %rbx
 6bb:	5d                   	pop    %rbp
 6bc:	41 5c                	pop    %r12
 6be:	41 5d                	pop    %r13
 6c0:	41 5e                	pop    %r14
 6c2:	41 5f                	pop    %r15
 6c4:	c3                   	retq   
 6c5:	90                   	nop
 6c6:	66 2e 0f 1f 84 00 00 	nopw   %cs:0x0(%rax,%rax,1)
 6cd:	00 00 00 

00000000000006d0 <__libc_csu_fini>:
 6d0:	f3 c3                	repz retq 

Desensamblado de la sección .fini:

00000000000006d4 <_fini>:
 6d4:	48 83 ec 08          	sub    $0x8,%rsp
 6d8:	48 83 c4 08          	add    $0x8,%rsp
 6dc:	c3                   	retq   
